パワポストラテジー
===

構成
  タイトル
    画像不要
  序論（１）
  環境設定（１〜２）
  解析（１〜３）
  結論（１）
  まとめ
    画像不要

必要なポイント
  p01 実験のおおまかなイメージができる写真
  p02 水素のスペクトル系列
  p03 デジタルカメラから得られるデータの処理プロセス
  p04 実験環境写真
  p05 撮影して得られる画像本体
  p06 観測データ

